{
  "data": [
    {
      "category": "3.10",
      "date": "2024-08",
      "downloads": 40
    },
    {
      "category": "3.10",
      "date": "2024-09",
      "downloads": 244
    },
    {
      "category": "3.10",
      "date": "2024-10",
      "downloads": 240
    },
    {
      "category": "3.10",
      "date": "2024-11",
      "downloads": 242
    },
    {
      "category": "3.10",
      "date": "2024-12",
      "downloads": 254
    },
    {
      "category": "3.10",
      "date": "2025-01",
      "downloads": 250
    },
    {
      "category": "3.10",
      "date": "2025-02",
      "downloads": 177
    },
    {
      "category": "3.11",
      "date": "2024-08",
      "downloads": 40
    },
    {
      "category": "3.11",
      "date": "2024-09",
      "downloads": 242
    },
    {
      "category": "3.11",
      "date": "2024-10",
      "downloads": 242
    },
    {
      "category": "3.11",
      "date": "2024-11",
      "downloads": 240
    },
    {
      "category": "3.11",
      "date": "2024-12",
      "downloads": 253
    },
    {
      "category": "3.11",
      "date": "2025-01",
      "downloads": 252
    },
    {
      "category": "3.11",
      "date": "2025-02",
      "downloads": 176
    },
    {
      "category": "3.12",
      "date": "2024-08",
      "downloads": 42
    },
    {
      "category": "3.12",
      "date": "2024-09",
      "downloads": 240
    },
    {
      "category": "3.12",
      "date": "2024-10",
      "downloads": 239
    },
    {
      "category": "3.12",
      "date": "2024-11",
      "downloads": 243
    },
    {
      "category": "3.12",
      "date": "2024-12",
      "downloads": 250
    },
    {
      "category": "3.12",
      "date": "2025-01",
      "downloads": 250
    },
    {
      "category": "3.12",
      "date": "2025-02",
      "downloads": 176
    },
    {
      "category": "3.8",
      "date": "2024-08",
      "downloads": 40
    },
    {
      "category": "3.8",
      "date": "2024-09",
      "downloads": 240
    },
    {
      "category": "3.8",
      "date": "2024-10",
      "downloads": 240
    },
    {
      "category": "3.8",
      "date": "2024-11",
      "downloads": 242
    },
    {
      "category": "3.8",
      "date": "2024-12",
      "downloads": 252
    },
    {
      "category": "3.8",
      "date": "2025-01",
      "downloads": 248
    },
    {
      "category": "3.8",
      "date": "2025-02",
      "downloads": 177
    },
    {
      "category": "3.9",
      "date": "2024-08",
      "downloads": 1
    },
    {
      "category": "3.9",
      "date": "2024-10",
      "downloads": 6
    },
    {
      "category": "3.9",
      "date": "2024-11",
      "downloads": 2
    },
    {
      "category": "null",
      "date": "2024-08",
      "downloads": 8
    },
    {
      "category": "null",
      "date": "2024-09",
      "downloads": 95
    },
    {
      "category": "null",
      "date": "2024-10",
      "downloads": 210
    },
    {
      "category": "null",
      "date": "2024-11",
      "downloads": 104
    },
    {
      "category": "null",
      "date": "2024-12",
      "downloads": 71
    },
    {
      "category": "null",
      "date": "2025-01",
      "downloads": 164
    },
    {
      "category": "null",
      "date": "2025-02",
      "downloads": 68
    }
  ],
  "package": "spdx-lint",
  "type": "python_minor_downloads"
}
